{
  "nodes": [
    {
      "name": "a",
      "parameter": 50.0,
      "initialConcentration": 10.0,
      "type": 1,
      "protectedSequence": true,
      "DNAString": "",
      "reporter": false,
      "hasPseudoTemplate": false,
      "pseudoTemplateConcentration": 0.0
    },
    {
      "name": "b",
      "parameter": 50.0,
      "initialConcentration": 5.0,
      "type": 1,
      "protectedSequence": false,
      "DNAString": "",
      "reporter": false,
      "hasPseudoTemplate": false,
      "pseudoTemplateConcentration": 0.0
    },
    {
      "name": "IaTa",
      "parameter": 0.0,
      "initialConcentration": 0.0,
      "type": 2,
      "protectedSequence": false,
      "DNAString": "",
      "reporter": false,
      "hasPseudoTemplate": false,
      "pseudoTemplateConcentration": 0.0
    },
    {
      "name": "IbTb",
      "parameter": 0.0,
      "initialConcentration": 0.0,
      "type": 2,
      "protectedSequence": false,
      "DNAString": "",
      "reporter": false,
      "hasPseudoTemplate": false,
      "pseudoTemplateConcentration": 0.0
    }
  ],
  "connections": [
    {
      "innovation": 0,
      "enabled": true,
      "parameter": 10.0,
      "from": "a",
      "to": "a"
    },
    {
      "innovation": 1,
      "enabled": true,
      "parameter": 10.0,
      "from": "b",
      "to": "b"
    },
    {
      "innovation": 2,
      "enabled": true,
      "parameter": 20.0,
      "from": "a",
      "to": "IbTb"
    },
    {
      "innovation": 3,
      "enabled": true,
      "parameter": 20.0,
      "from": "b",
      "to": "IaTa"
    }
  ],
  "parameters": {
    "nick": 10.0,
    "pol": 10.0,
    "exo": 10.0
  }
}
